%TF.GenerationSoftware,KiCad,Pcbnew,(5.1.10)-1*%
%TF.CreationDate,2021-08-16T15:44:37-07:00*%
%TF.ProjectId,CustomKeyboard,43757374-6f6d-44b6-9579-626f6172642e,rev?*%
%TF.SameCoordinates,Original*%
%TF.FileFunction,Paste,Bot*%
%TF.FilePolarity,Positive*%
%FSLAX46Y46*%
G04 Gerber Fmt 4.6, Leading zero omitted, Abs format (unit mm)*
G04 Created by KiCad (PCBNEW (5.1.10)-1) date 2021-08-16 15:44:37*
%MOMM*%
%LPD*%
G01*
G04 APERTURE LIST*
%ADD10R,2.550000X2.500000*%
%ADD11R,1.200000X1.200000*%
%ADD12R,1.200000X1.400000*%
%ADD13R,0.550000X1.500000*%
%ADD14R,1.500000X0.550000*%
%ADD15R,1.000000X1.700000*%
%ADD16R,2.350000X0.800000*%
%ADD17R,0.500000X1.400000*%
%ADD18O,1.500000X4.000000*%
G04 APERTURE END LIST*
D10*
%TO.C,K_LftCtrl1*%
X39638000Y-142557500D03*
X25788000Y-145097500D03*
%TD*%
%TO.C,K_Tab1*%
X42019250Y-85407500D03*
X28169250Y-87947500D03*
%TD*%
D11*
%TO.C,D_R1*%
X107166750Y-93675000D03*
X107166750Y-96825000D03*
%TD*%
%TO.C,D_O1*%
X202416750Y-93675000D03*
X202416750Y-96825000D03*
%TD*%
%TO.C,D_Q1*%
X50016750Y-93675000D03*
X50016750Y-96825000D03*
%TD*%
%TO.C,D_Point_pad1*%
X350054250Y-103200000D03*
X350054250Y-106350000D03*
%TD*%
%TO.C,D_RgtBrack1*%
X259566750Y-93675000D03*
X259566750Y-96825000D03*
%TD*%
%TO.C,D_T1*%
X126216750Y-93675000D03*
X126216750Y-96825000D03*
%TD*%
%TO.C,D_W1*%
X69066750Y-93675000D03*
X69066750Y-96825000D03*
%TD*%
%TO.C,D_Y1*%
X145266750Y-93675000D03*
X145266750Y-96825000D03*
%TD*%
%TO.C,D_Tab1*%
X23823000Y-93675000D03*
X23823000Y-96825000D03*
%TD*%
%TO.C,D_U1*%
X164316750Y-93675000D03*
X164316750Y-96825000D03*
%TD*%
D10*
%TO.C,K_RgtBrack1*%
X275381750Y-85407500D03*
X261531750Y-87947500D03*
%TD*%
%TO.C,K_Y1*%
X161081750Y-85407500D03*
X147231750Y-87947500D03*
%TD*%
%TO.C,K_T1*%
X142031750Y-85407500D03*
X128181750Y-87947500D03*
%TD*%
%TO.C,K_W1*%
X84881750Y-85407500D03*
X71031750Y-87947500D03*
%TD*%
%TO.C,K_U1*%
X180131750Y-85407500D03*
X166281750Y-87947500D03*
%TD*%
%TO.C,K_R1*%
X122981750Y-85407500D03*
X109131750Y-87947500D03*
%TD*%
D11*
%TO.C,D_E1*%
X88116750Y-93675000D03*
X88116750Y-96825000D03*
%TD*%
%TO.C,D_Equals_pad1*%
X311954250Y-103200000D03*
X311954250Y-106350000D03*
%TD*%
%TO.C,D_LftBrack1*%
X240516750Y-93675000D03*
X240516750Y-96825000D03*
%TD*%
%TO.C,D_I1*%
X183366750Y-93675000D03*
X183366750Y-96825000D03*
%TD*%
%TO.C,D_BckSlash1*%
X280998000Y-93675000D03*
X280998000Y-96825000D03*
%TD*%
%TO.C,D_1_pad1*%
X311954250Y-84150000D03*
X311954250Y-87300000D03*
%TD*%
%TO.C,D_0_pad1*%
X331004250Y-103200000D03*
X331004250Y-106350000D03*
%TD*%
%TO.C,D_2_pad1*%
X331004250Y-84150000D03*
X331004250Y-87300000D03*
%TD*%
%TO.C,D_3_pad1*%
X350054250Y-84150000D03*
X350054250Y-87300000D03*
%TD*%
D10*
%TO.C,K_I1*%
X199181750Y-85407500D03*
X185331750Y-87947500D03*
%TD*%
%TO.C,K_O1*%
X218231750Y-85407500D03*
X204381750Y-87947500D03*
%TD*%
%TO.C,K_Q1*%
X65831750Y-85407500D03*
X51981750Y-87947500D03*
%TD*%
%TO.C,K_LftBrack1*%
X256331750Y-85407500D03*
X242481750Y-87947500D03*
%TD*%
%TO.C,K_E1*%
X103931750Y-85407500D03*
X90081750Y-87947500D03*
%TD*%
%TO.C,K_P1*%
X237281750Y-85407500D03*
X223431750Y-87947500D03*
%TD*%
%TO.C,K_2_pad1*%
X346819250Y-75882500D03*
X332969250Y-78422500D03*
%TD*%
%TO.C,K_1_pad1*%
X327769250Y-75882500D03*
X313919250Y-78422500D03*
%TD*%
%TO.C,K_3_pad1*%
X365869250Y-75882500D03*
X352019250Y-78422500D03*
%TD*%
%TO.C,K_0_pad1*%
X346819250Y-94932500D03*
X332969250Y-97472500D03*
%TD*%
%TO.C,K_BckSlash1*%
X299194250Y-85407500D03*
X285344250Y-87947500D03*
%TD*%
%TO.C,K_F7*%
X185331750Y-40322500D03*
X199181750Y-37782500D03*
%TD*%
%TO.C,K_F2*%
X80556750Y-40322500D03*
X94406750Y-37782500D03*
%TD*%
%TO.C,K_F8*%
X204381750Y-40322500D03*
X218231750Y-37782500D03*
%TD*%
%TO.C,K_6_pad1*%
X352019250Y-59372500D03*
X365869250Y-56832500D03*
%TD*%
%TO.C,K_8_pad1*%
X332969250Y-40322500D03*
X346819250Y-37782500D03*
%TD*%
%TO.C,K_5_pad1*%
X332969250Y-59372500D03*
X346819250Y-56832500D03*
%TD*%
%TO.C,K_7_pad1*%
X313919250Y-40322500D03*
X327769250Y-37782500D03*
%TD*%
%TO.C,K_4_pad1*%
X313919250Y-59372500D03*
X327769250Y-56832500D03*
%TD*%
%TO.C,K_F9*%
X232956750Y-40322500D03*
X246806750Y-37782500D03*
%TD*%
%TO.C,K_F12*%
X290106750Y-40322500D03*
X303956750Y-37782500D03*
%TD*%
%TO.C,K_F1*%
X61506750Y-40322500D03*
X75356750Y-37782500D03*
%TD*%
%TO.C,K_F10*%
X252006750Y-40322500D03*
X265856750Y-37782500D03*
%TD*%
%TO.C,K_F6*%
X166281750Y-40322500D03*
X180131750Y-37782500D03*
%TD*%
%TO.C,K_9*%
X194856750Y-68897500D03*
X208706750Y-66357500D03*
%TD*%
%TO.C,K_Minus1*%
X232956750Y-68897500D03*
X246806750Y-66357500D03*
%TD*%
%TO.C,K_Backspace1*%
X280581750Y-68897500D03*
X294431750Y-66357500D03*
%TD*%
%TO.C,K_Del1*%
X252006750Y-68897500D03*
X265856750Y-66357500D03*
%TD*%
D11*
%TO.C,D_6*%
X135741750Y-77775000D03*
X135741750Y-74625000D03*
%TD*%
%TO.C,D_0*%
X211941750Y-77775000D03*
X211941750Y-74625000D03*
%TD*%
%TO.C,D_Minus1*%
X230991750Y-77775000D03*
X230991750Y-74625000D03*
%TD*%
D10*
%TO.C,K_5*%
X118656750Y-68897500D03*
X132506750Y-66357500D03*
%TD*%
%TO.C,K_Esc1*%
X23406750Y-40322500D03*
X37256750Y-37782500D03*
%TD*%
%TO.C,K_Accent1*%
X23406750Y-68897500D03*
X37256750Y-66357500D03*
%TD*%
%TO.C,K_8*%
X175806750Y-68897500D03*
X189656750Y-66357500D03*
%TD*%
%TO.C,K_F3*%
X99606750Y-40322500D03*
X113456750Y-37782500D03*
%TD*%
%TO.C,K_4*%
X99606750Y-68897500D03*
X113456750Y-66357500D03*
%TD*%
D11*
%TO.C,D_4*%
X97641750Y-77775000D03*
X97641750Y-74625000D03*
%TD*%
%TO.C,D_5*%
X116691750Y-77775000D03*
X116691750Y-74625000D03*
%TD*%
D10*
%TO.C,K_9_pad1*%
X352019250Y-40322500D03*
X365869250Y-37782500D03*
%TD*%
D11*
%TO.C,D_7*%
X154791750Y-77775000D03*
X154791750Y-74625000D03*
%TD*%
%TO.C,D_1*%
X40491750Y-77775000D03*
X40491750Y-74625000D03*
%TD*%
%TO.C,D_3*%
X78591750Y-77775000D03*
X78591750Y-74625000D03*
%TD*%
%TO.C,D_2*%
X59541750Y-77775000D03*
X59541750Y-74625000D03*
%TD*%
D10*
%TO.C,K_2*%
X61506750Y-68897500D03*
X75356750Y-66357500D03*
%TD*%
%TO.C,K_6*%
X137706750Y-68897500D03*
X151556750Y-66357500D03*
%TD*%
%TO.C,K_0*%
X213906750Y-68897500D03*
X227756750Y-66357500D03*
%TD*%
%TO.C,K_7*%
X156756750Y-68897500D03*
X170606750Y-66357500D03*
%TD*%
D11*
%TO.C,D_F2*%
X78591750Y-49200000D03*
X78591750Y-46050000D03*
%TD*%
%TO.C,D_Esc1*%
X23227489Y-49200000D03*
X23227489Y-46050000D03*
%TD*%
D10*
%TO.C,K_3*%
X80556750Y-68897500D03*
X94406750Y-66357500D03*
%TD*%
D11*
%TO.C,D_F5*%
X145266750Y-49200000D03*
X145266750Y-46050000D03*
%TD*%
%TO.C,D_F6*%
X164316750Y-49200000D03*
X164316750Y-46050000D03*
%TD*%
%TO.C,D_F3*%
X97641750Y-49200000D03*
X97641750Y-46050000D03*
%TD*%
%TO.C,D_F7*%
X183366750Y-49200000D03*
X183366750Y-46050000D03*
%TD*%
%TO.C,D_F1*%
X59541750Y-49200000D03*
X59541750Y-46050000D03*
%TD*%
%TO.C,D_F9*%
X230991750Y-49200000D03*
X230991750Y-46050000D03*
%TD*%
%TO.C,D_Del1*%
X250041750Y-77775000D03*
X250041750Y-74625000D03*
%TD*%
%TO.C,D_F4*%
X116691750Y-49200000D03*
X116691750Y-46050000D03*
%TD*%
%TO.C,D_F11*%
X269091750Y-49200000D03*
X269091750Y-46050000D03*
%TD*%
%TO.C,D_F10*%
X250041750Y-49200000D03*
X250041750Y-46050000D03*
%TD*%
%TO.C,D_F12*%
X288141750Y-49200000D03*
X288141750Y-46050000D03*
%TD*%
D10*
%TO.C,K_1*%
X42456750Y-68897500D03*
X56306750Y-66357500D03*
%TD*%
D11*
%TO.C,D_F8*%
X202416750Y-49200000D03*
X202416750Y-46050000D03*
%TD*%
%TO.C,D_9*%
X192891750Y-77775000D03*
X192891750Y-74625000D03*
%TD*%
%TO.C,D_7_pad1*%
X311954250Y-49200000D03*
X311954250Y-46050000D03*
%TD*%
%TO.C,D_9_pad1*%
X350054250Y-49200000D03*
X350054250Y-46050000D03*
%TD*%
%TO.C,D_Backspace1*%
X271473030Y-77775348D03*
X271473030Y-74625348D03*
%TD*%
%TO.C,D_Accent1*%
X23227489Y-77775000D03*
X23227489Y-74625000D03*
%TD*%
%TO.C,D_8_pad1*%
X331004310Y-49199888D03*
X331004310Y-46049888D03*
%TD*%
D10*
%TO.C,K_F4*%
X118656750Y-40322500D03*
X132506750Y-37782500D03*
%TD*%
%TO.C,K_F5*%
X147231750Y-40322500D03*
X161081750Y-37782500D03*
%TD*%
%TO.C,K_F11*%
X271056750Y-40322500D03*
X284906750Y-37782500D03*
%TD*%
D11*
%TO.C,D_8*%
X173841750Y-77775000D03*
X173841750Y-74625000D03*
%TD*%
%TO.C,D_4_pad1*%
X311954250Y-68250000D03*
X311954250Y-65100000D03*
%TD*%
%TO.C,D_6_pad1*%
X350054250Y-68250000D03*
X350054250Y-65100000D03*
%TD*%
%TO.C,D_5_pad1*%
X331004250Y-68250000D03*
X331004250Y-65100000D03*
%TD*%
%TO.C,D_S1*%
X73829250Y-112725000D03*
X73829250Y-115875000D03*
%TD*%
%TO.C,D_SemiCol1*%
X226229250Y-112725000D03*
X226229250Y-115875000D03*
%TD*%
%TO.C,D_Quote1*%
X245279250Y-112725000D03*
X245279250Y-115875000D03*
%TD*%
D10*
%TO.C,K_Quote1*%
X261094250Y-104457500D03*
X247244250Y-106997500D03*
%TD*%
%TO.C,K_SemiCol1*%
X242044250Y-104457500D03*
X228194250Y-106997500D03*
%TD*%
%TO.C,K_S1*%
X89644250Y-104457500D03*
X75794250Y-106997500D03*
%TD*%
D11*
%TO.C,D_Caps1*%
X26204250Y-112725000D03*
X26204250Y-115875000D03*
%TD*%
%TO.C,D_D1*%
X92879250Y-112725000D03*
X92879250Y-115875000D03*
%TD*%
%TO.C,D_Enter1*%
X267008175Y-112725444D03*
X267008175Y-115875444D03*
%TD*%
%TO.C,D_K1*%
X188129250Y-112725000D03*
X188129250Y-115875000D03*
%TD*%
%TO.C,D_H1*%
X150029250Y-112725000D03*
X150029250Y-115875000D03*
%TD*%
%TO.C,D_G1*%
X130979250Y-112725000D03*
X130979250Y-115875000D03*
%TD*%
%TO.C,D_L1*%
X207179250Y-112725000D03*
X207179250Y-115875000D03*
%TD*%
%TO.C,D_J1*%
X169079250Y-112725000D03*
X169079250Y-115875000D03*
%TD*%
%TO.C,D_F13*%
X111929250Y-112725000D03*
X111929250Y-115875000D03*
%TD*%
%TO.C,D_A1*%
X54779250Y-112725000D03*
X54779250Y-115875000D03*
%TD*%
D10*
%TO.C,K_H1*%
X165844250Y-104457500D03*
X151994250Y-106997500D03*
%TD*%
%TO.C,K_J1*%
X184894250Y-104457500D03*
X171044250Y-106997500D03*
%TD*%
%TO.C,K_K1*%
X203944250Y-104457500D03*
X190094250Y-106997500D03*
%TD*%
%TO.C,K_L1*%
X222994250Y-104457500D03*
X209144250Y-106997500D03*
%TD*%
%TO.C,K_G1*%
X146794250Y-104457500D03*
X132944250Y-106997500D03*
%TD*%
%TO.C,K_F13*%
X127744250Y-104457500D03*
X113894250Y-106997500D03*
%TD*%
%TO.C,K_Caps1*%
X44400500Y-104457500D03*
X30550500Y-106997500D03*
%TD*%
%TO.C,K_A1*%
X70594250Y-104457500D03*
X56744250Y-106997500D03*
%TD*%
%TO.C,K_D1*%
X108694250Y-104457500D03*
X94844250Y-106997500D03*
%TD*%
%TO.C,K_LftShift1*%
X49163000Y-123507500D03*
X35313000Y-126047500D03*
%TD*%
D11*
%TO.C,D_M1*%
X178604250Y-131775000D03*
X178604250Y-134925000D03*
%TD*%
%TO.C,D_RgtShift1*%
X259566750Y-131775000D03*
X259566750Y-134925000D03*
%TD*%
%TO.C,D_N1*%
X159554250Y-131775000D03*
X159554250Y-134925000D03*
%TD*%
%TO.C,D_Point1*%
X216704250Y-131775000D03*
X216704250Y-134925000D03*
%TD*%
%TO.C,D_V1*%
X121454250Y-131775000D03*
X121454250Y-134925000D03*
%TD*%
%TO.C,D_Up1*%
X331004250Y-131775000D03*
X331004250Y-134925000D03*
%TD*%
%TO.C,D_X1*%
X83354250Y-131775000D03*
X83354250Y-134925000D03*
%TD*%
%TO.C,D_Z1*%
X64304250Y-131775000D03*
X64304250Y-134925000D03*
%TD*%
D10*
%TO.C,K_V1*%
X137269250Y-123507500D03*
X123419250Y-126047500D03*
%TD*%
%TO.C,K_Up1*%
X346819250Y-123507500D03*
X332969250Y-126047500D03*
%TD*%
%TO.C,K_Z1*%
X80119250Y-123507500D03*
X66269250Y-126047500D03*
%TD*%
%TO.C,K_RgtShift1*%
X287288000Y-123507500D03*
X273438000Y-126047500D03*
%TD*%
%TO.C,K_X1*%
X99169250Y-123507500D03*
X85319250Y-126047500D03*
%TD*%
D11*
%TO.C,D_Comma1*%
X197654250Y-131775000D03*
X197654250Y-134925000D03*
%TD*%
%TO.C,D_LftShift1*%
X26203662Y-131775492D03*
X26203662Y-134925492D03*
%TD*%
%TO.C,D_FwdSlash1*%
X235754250Y-131775000D03*
X235754250Y-134925000D03*
%TD*%
%TO.C,D_B1*%
X140504250Y-131775000D03*
X140504250Y-134925000D03*
%TD*%
%TO.C,D_C1*%
X101706750Y-129720000D03*
X101706750Y-132870000D03*
%TD*%
D10*
%TO.C,K_FwdSlash1*%
X251569250Y-123507500D03*
X237719250Y-126047500D03*
%TD*%
%TO.C,K_M1*%
X194419250Y-123507500D03*
X180569250Y-126047500D03*
%TD*%
%TO.C,K_N1*%
X175369250Y-123507500D03*
X161519250Y-126047500D03*
%TD*%
%TO.C,K_Point1*%
X232519250Y-123507500D03*
X218669250Y-126047500D03*
%TD*%
%TO.C,K_Comma1*%
X213469250Y-123507500D03*
X199619250Y-126047500D03*
%TD*%
%TO.C,K_C1*%
X118219250Y-123507500D03*
X104369250Y-126047500D03*
%TD*%
%TO.C,K_B1*%
X156319250Y-123507500D03*
X142469250Y-126047500D03*
%TD*%
%TO.C,K_LftAlt1*%
X87263000Y-142557500D03*
X73413000Y-145097500D03*
%TD*%
%TO.C,K_RgtWin1*%
X277763000Y-142557500D03*
X263913000Y-145097500D03*
%TD*%
D11*
%TO.C,D_Right1*%
X350054250Y-150825000D03*
X350054250Y-153975000D03*
%TD*%
%TO.C,D_RgtAlt1*%
X211941750Y-150825000D03*
X211941750Y-153975000D03*
%TD*%
%TO.C,D_RgtCtrl1*%
X283379250Y-150825000D03*
X283379250Y-153975000D03*
%TD*%
%TO.C,D_Fn1*%
X235754250Y-150825000D03*
X235754250Y-153975000D03*
%TD*%
%TO.C,D_Space1*%
X140504250Y-150825000D03*
X140504250Y-153975000D03*
%TD*%
D10*
%TO.C,K_Space1*%
X158700500Y-142557500D03*
X144850500Y-145097500D03*
%TD*%
%TO.C,K_RgtAlt1*%
X230138000Y-142557500D03*
X216288000Y-145097500D03*
%TD*%
%TO.C,K_RgtCtrl1*%
X301575500Y-142557500D03*
X287725500Y-145097500D03*
%TD*%
%TO.C,K_Fn1*%
X253950500Y-142557500D03*
X240100500Y-145097500D03*
%TD*%
%TO.C,K_Right1*%
X365869250Y-142557500D03*
X352019250Y-145097500D03*
%TD*%
D11*
%TO.C,D_Down1*%
X331004250Y-150825000D03*
X331004250Y-153975000D03*
%TD*%
%TO.C,D_LftWin1*%
X45254250Y-150825000D03*
X45254250Y-153975000D03*
%TD*%
%TO.C,D_RgtWin1*%
X259566750Y-150825000D03*
X259566750Y-153975000D03*
%TD*%
%TO.C,D_LftAlt1*%
X69066750Y-150825000D03*
X69066750Y-153975000D03*
%TD*%
%TO.C,D_LftCtrl1*%
X23822802Y-150825000D03*
X23822802Y-153975000D03*
%TD*%
D10*
%TO.C,K_LftWin1*%
X63450500Y-142557500D03*
X49600500Y-145097500D03*
%TD*%
%TO.C,K_Down1*%
X346819250Y-142557500D03*
X332969250Y-145097500D03*
%TD*%
D11*
%TO.C,D_P1*%
X221466750Y-93675000D03*
X221466750Y-96825000D03*
%TD*%
%TO.C,C1*%
G36*
G01*
X322963210Y-123134140D02*
X322963210Y-122184140D01*
G75*
G02*
X323213210Y-121934140I250000J0D01*
G01*
X323888210Y-121934140D01*
G75*
G02*
X324138210Y-122184140I0J-250000D01*
G01*
X324138210Y-123134140D01*
G75*
G02*
X323888210Y-123384140I-250000J0D01*
G01*
X323213210Y-123384140D01*
G75*
G02*
X322963210Y-123134140I0J250000D01*
G01*
G37*
G36*
G01*
X325038210Y-123134140D02*
X325038210Y-122184140D01*
G75*
G02*
X325288210Y-121934140I250000J0D01*
G01*
X325963210Y-121934140D01*
G75*
G02*
X326213210Y-122184140I0J-250000D01*
G01*
X326213210Y-123134140D01*
G75*
G02*
X325963210Y-123384140I-250000J0D01*
G01*
X325288210Y-123384140D01*
G75*
G02*
X325038210Y-123134140I0J250000D01*
G01*
G37*
%TD*%
%TO.C,C4*%
G36*
G01*
X317879080Y-133957292D02*
X318829080Y-133957292D01*
G75*
G02*
X319079080Y-134207292I0J-250000D01*
G01*
X319079080Y-134882292D01*
G75*
G02*
X318829080Y-135132292I-250000J0D01*
G01*
X317879080Y-135132292D01*
G75*
G02*
X317629080Y-134882292I0J250000D01*
G01*
X317629080Y-134207292D01*
G75*
G02*
X317879080Y-133957292I250000J0D01*
G01*
G37*
G36*
G01*
X317879080Y-136032292D02*
X318829080Y-136032292D01*
G75*
G02*
X319079080Y-136282292I0J-250000D01*
G01*
X319079080Y-136957292D01*
G75*
G02*
X318829080Y-137207292I-250000J0D01*
G01*
X317879080Y-137207292D01*
G75*
G02*
X317629080Y-136957292I0J250000D01*
G01*
X317629080Y-136282292D01*
G75*
G02*
X317879080Y-136032292I250000J0D01*
G01*
G37*
%TD*%
%TO.C,C2*%
G36*
G01*
X322737150Y-131490740D02*
X322737150Y-130540740D01*
G75*
G02*
X322987150Y-130290740I250000J0D01*
G01*
X323662150Y-130290740D01*
G75*
G02*
X323912150Y-130540740I0J-250000D01*
G01*
X323912150Y-131490740D01*
G75*
G02*
X323662150Y-131740740I-250000J0D01*
G01*
X322987150Y-131740740D01*
G75*
G02*
X322737150Y-131490740I0J250000D01*
G01*
G37*
G36*
G01*
X324812150Y-131490740D02*
X324812150Y-130540740D01*
G75*
G02*
X325062150Y-130290740I250000J0D01*
G01*
X325737150Y-130290740D01*
G75*
G02*
X325987150Y-130540740I0J-250000D01*
G01*
X325987150Y-131490740D01*
G75*
G02*
X325737150Y-131740740I-250000J0D01*
G01*
X325062150Y-131740740D01*
G75*
G02*
X324812150Y-131490740I0J250000D01*
G01*
G37*
%TD*%
%TO.C,C5*%
G36*
G01*
X317489419Y-115627313D02*
X316539419Y-115627313D01*
G75*
G02*
X316289419Y-115377313I0J250000D01*
G01*
X316289419Y-114702313D01*
G75*
G02*
X316539419Y-114452313I250000J0D01*
G01*
X317489419Y-114452313D01*
G75*
G02*
X317739419Y-114702313I0J-250000D01*
G01*
X317739419Y-115377313D01*
G75*
G02*
X317489419Y-115627313I-250000J0D01*
G01*
G37*
G36*
G01*
X317489419Y-113552313D02*
X316539419Y-113552313D01*
G75*
G02*
X316289419Y-113302313I0J250000D01*
G01*
X316289419Y-112627313D01*
G75*
G02*
X316539419Y-112377313I250000J0D01*
G01*
X317489419Y-112377313D01*
G75*
G02*
X317739419Y-112627313I0J-250000D01*
G01*
X317739419Y-113302313D01*
G75*
G02*
X317489419Y-113552313I-250000J0D01*
G01*
G37*
%TD*%
%TO.C,C6*%
G36*
G01*
X322235749Y-119983760D02*
X322235749Y-119033760D01*
G75*
G02*
X322485749Y-118783760I250000J0D01*
G01*
X323160749Y-118783760D01*
G75*
G02*
X323410749Y-119033760I0J-250000D01*
G01*
X323410749Y-119983760D01*
G75*
G02*
X323160749Y-120233760I-250000J0D01*
G01*
X322485749Y-120233760D01*
G75*
G02*
X322235749Y-119983760I0J250000D01*
G01*
G37*
G36*
G01*
X324310749Y-119983760D02*
X324310749Y-119033760D01*
G75*
G02*
X324560749Y-118783760I250000J0D01*
G01*
X325235749Y-118783760D01*
G75*
G02*
X325485749Y-119033760I0J-250000D01*
G01*
X325485749Y-119983760D01*
G75*
G02*
X325235749Y-120233760I-250000J0D01*
G01*
X324560749Y-120233760D01*
G75*
G02*
X324310749Y-119983760I0J250000D01*
G01*
G37*
%TD*%
%TO.C,C8*%
G36*
G01*
X315108163Y-115627313D02*
X314158163Y-115627313D01*
G75*
G02*
X313908163Y-115377313I0J250000D01*
G01*
X313908163Y-114702313D01*
G75*
G02*
X314158163Y-114452313I250000J0D01*
G01*
X315108163Y-114452313D01*
G75*
G02*
X315358163Y-114702313I0J-250000D01*
G01*
X315358163Y-115377313D01*
G75*
G02*
X315108163Y-115627313I-250000J0D01*
G01*
G37*
G36*
G01*
X315108163Y-113552313D02*
X314158163Y-113552313D01*
G75*
G02*
X313908163Y-113302313I0J250000D01*
G01*
X313908163Y-112627313D01*
G75*
G02*
X314158163Y-112377313I250000J0D01*
G01*
X315108163Y-112377313D01*
G75*
G02*
X315358163Y-112627313I0J-250000D01*
G01*
X315358163Y-113302313D01*
G75*
G02*
X315108163Y-113552313I-250000J0D01*
G01*
G37*
%TD*%
%TO.C,C3*%
G36*
G01*
X304352015Y-131089550D02*
X304352015Y-132039550D01*
G75*
G02*
X304102015Y-132289550I-250000J0D01*
G01*
X303427015Y-132289550D01*
G75*
G02*
X303177015Y-132039550I0J250000D01*
G01*
X303177015Y-131089550D01*
G75*
G02*
X303427015Y-130839550I250000J0D01*
G01*
X304102015Y-130839550D01*
G75*
G02*
X304352015Y-131089550I0J-250000D01*
G01*
G37*
G36*
G01*
X302277015Y-131089550D02*
X302277015Y-132039550D01*
G75*
G02*
X302027015Y-132289550I-250000J0D01*
G01*
X301352015Y-132289550D01*
G75*
G02*
X301102015Y-132039550I0J250000D01*
G01*
X301102015Y-131089550D01*
G75*
G02*
X301352015Y-130839550I250000J0D01*
G01*
X302027015Y-130839550D01*
G75*
G02*
X302277015Y-131089550I0J-250000D01*
G01*
G37*
%TD*%
%TO.C,C7*%
G36*
G01*
X307964395Y-115627306D02*
X307014395Y-115627306D01*
G75*
G02*
X306764395Y-115377306I0J250000D01*
G01*
X306764395Y-114702306D01*
G75*
G02*
X307014395Y-114452306I250000J0D01*
G01*
X307964395Y-114452306D01*
G75*
G02*
X308214395Y-114702306I0J-250000D01*
G01*
X308214395Y-115377306D01*
G75*
G02*
X307964395Y-115627306I-250000J0D01*
G01*
G37*
G36*
G01*
X307964395Y-113552306D02*
X307014395Y-113552306D01*
G75*
G02*
X306764395Y-113302306I0J250000D01*
G01*
X306764395Y-112627306D01*
G75*
G02*
X307014395Y-112377306I250000J0D01*
G01*
X307964395Y-112377306D01*
G75*
G02*
X308214395Y-112627306I0J-250000D01*
G01*
X308214395Y-113302306D01*
G75*
G02*
X307964395Y-113552306I-250000J0D01*
G01*
G37*
%TD*%
D12*
%TO.C,X1*%
X325352910Y-125715840D03*
X325352910Y-127915840D03*
X323752910Y-127915840D03*
X323752910Y-125715840D03*
%TD*%
%TO.C,R4*%
G36*
G01*
X311801906Y-112402306D02*
X312701908Y-112402306D01*
G75*
G02*
X312951907Y-112652305I0J-249999D01*
G01*
X312951907Y-113352307D01*
G75*
G02*
X312701908Y-113602306I-249999J0D01*
G01*
X311801906Y-113602306D01*
G75*
G02*
X311551907Y-113352307I0J249999D01*
G01*
X311551907Y-112652305D01*
G75*
G02*
X311801906Y-112402306I249999J0D01*
G01*
G37*
G36*
G01*
X311801906Y-114402306D02*
X312701908Y-114402306D01*
G75*
G02*
X312951907Y-114652305I0J-249999D01*
G01*
X312951907Y-115352307D01*
G75*
G02*
X312701908Y-115602306I-249999J0D01*
G01*
X311801906Y-115602306D01*
G75*
G02*
X311551907Y-115352307I0J249999D01*
G01*
X311551907Y-114652305D01*
G75*
G02*
X311801906Y-114402306I249999J0D01*
G01*
G37*
%TD*%
%TO.C,R3*%
G36*
G01*
X310320652Y-115602306D02*
X309420650Y-115602306D01*
G75*
G02*
X309170651Y-115352307I0J249999D01*
G01*
X309170651Y-114652305D01*
G75*
G02*
X309420650Y-114402306I249999J0D01*
G01*
X310320652Y-114402306D01*
G75*
G02*
X310570651Y-114652305I0J-249999D01*
G01*
X310570651Y-115352307D01*
G75*
G02*
X310320652Y-115602306I-249999J0D01*
G01*
G37*
G36*
G01*
X310320652Y-113602306D02*
X309420650Y-113602306D01*
G75*
G02*
X309170651Y-113352307I0J249999D01*
G01*
X309170651Y-112652305D01*
G75*
G02*
X309420650Y-112402306I249999J0D01*
G01*
X310320652Y-112402306D01*
G75*
G02*
X310570651Y-112652305I0J-249999D01*
G01*
X310570651Y-113352307D01*
G75*
G02*
X310320652Y-113602306I-249999J0D01*
G01*
G37*
%TD*%
D13*
%TO.C,U1*%
X307954250Y-120506250D03*
X308754250Y-120506250D03*
X309554250Y-120506250D03*
X310354250Y-120506250D03*
X311154250Y-120506250D03*
X311954250Y-120506250D03*
X312754250Y-120506250D03*
X313554250Y-120506250D03*
X314354250Y-120506250D03*
X315154250Y-120506250D03*
X315954250Y-120506250D03*
D14*
X317654250Y-122206250D03*
X317654250Y-123006250D03*
X317654250Y-123806250D03*
X317654250Y-124606250D03*
X317654250Y-125406250D03*
X317654250Y-126206250D03*
X317654250Y-127006250D03*
X317654250Y-127806250D03*
X317654250Y-128606250D03*
X317654250Y-129406250D03*
X317654250Y-130206250D03*
D13*
X315954250Y-131906250D03*
X315154250Y-131906250D03*
X314354250Y-131906250D03*
X313554250Y-131906250D03*
X312754250Y-131906250D03*
X311954250Y-131906250D03*
X311154250Y-131906250D03*
X310354250Y-131906250D03*
X309554250Y-131906250D03*
X308754250Y-131906250D03*
X307954250Y-131906250D03*
D14*
X306254250Y-130206250D03*
X306254250Y-129406250D03*
X306254250Y-128606250D03*
X306254250Y-127806250D03*
X306254250Y-127006250D03*
X306254250Y-126206250D03*
X306254250Y-125406250D03*
X306254250Y-124606250D03*
X306254250Y-123806250D03*
X306254250Y-123006250D03*
X306254250Y-122206250D03*
%TD*%
%TO.C,R2*%
G36*
G01*
X305815300Y-133495805D02*
X305815300Y-134395807D01*
G75*
G02*
X305565301Y-134645806I-249999J0D01*
G01*
X304865299Y-134645806D01*
G75*
G02*
X304615300Y-134395807I0J249999D01*
G01*
X304615300Y-133495805D01*
G75*
G02*
X304865299Y-133245806I249999J0D01*
G01*
X305565301Y-133245806D01*
G75*
G02*
X305815300Y-133495805I0J-249999D01*
G01*
G37*
G36*
G01*
X303815300Y-133495805D02*
X303815300Y-134395807D01*
G75*
G02*
X303565301Y-134645806I-249999J0D01*
G01*
X302865299Y-134645806D01*
G75*
G02*
X302615300Y-134395807I0J249999D01*
G01*
X302615300Y-133495805D01*
G75*
G02*
X302865299Y-133245806I249999J0D01*
G01*
X303565301Y-133245806D01*
G75*
G02*
X303815300Y-133495805I0J-249999D01*
G01*
G37*
%TD*%
D15*
%TO.C,SW1*%
X361479250Y-124593750D03*
X361479250Y-118293750D03*
X357679250Y-124593750D03*
X357679250Y-118293750D03*
%TD*%
%TO.C,R1*%
G36*
G01*
X358243641Y-129740868D02*
X357343639Y-129740868D01*
G75*
G02*
X357093640Y-129490869I0J249999D01*
G01*
X357093640Y-128790867D01*
G75*
G02*
X357343639Y-128540868I249999J0D01*
G01*
X358243641Y-128540868D01*
G75*
G02*
X358493640Y-128790867I0J-249999D01*
G01*
X358493640Y-129490869D01*
G75*
G02*
X358243641Y-129740868I-249999J0D01*
G01*
G37*
G36*
G01*
X358243641Y-127740868D02*
X357343639Y-127740868D01*
G75*
G02*
X357093640Y-127490869I0J249999D01*
G01*
X357093640Y-126790867D01*
G75*
G02*
X357343639Y-126540868I249999J0D01*
G01*
X358243641Y-126540868D01*
G75*
G02*
X358493640Y-126790867I0J-249999D01*
G01*
X358493640Y-127490869D01*
G75*
G02*
X358243641Y-127740868I-249999J0D01*
G01*
G37*
%TD*%
D16*
%TO.C,J1*%
X52691222Y-32007281D03*
X47341222Y-32007281D03*
D17*
X48416222Y-37207281D03*
X49216222Y-37207281D03*
X50016222Y-37207281D03*
X50816222Y-37207281D03*
X51616222Y-37207281D03*
D18*
X46366222Y-34807281D03*
X53666222Y-34807281D03*
%TD*%
D10*
%TO.C,K_Equals_pad1*%
X327769250Y-94932500D03*
X313919250Y-97472500D03*
%TD*%
%TO.C,K_Enter1*%
X292050500Y-104457500D03*
X278200500Y-106997500D03*
%TD*%
%TO.C,K_Left1*%
X327769250Y-142557500D03*
X313919250Y-145097500D03*
%TD*%
%TO.C,K_Point_pad1*%
X365869250Y-94932500D03*
X352019250Y-97472500D03*
%TD*%
D11*
%TO.C,D_Left1*%
X311954250Y-150825000D03*
X311954250Y-153975000D03*
%TD*%
M02*
